# This file uses centimeters as units for non-parametric coordinates.

mtllib CurvedPlane.mtl
g default
v 5.007523 15.085429 -6.721795
v 3.011672 15.085429 -7.839564
v 1.014097 15.085429 -8.371223
v -0.985882 15.085429 -8.380425
v -2.988264 15.085429 -7.867169
v -4.992371 15.085429 -6.767802
v 5.007523 12.117942 -6.721795
v 3.011672 12.117942 -7.839564
v 1.014097 12.117942 -8.371223
v -0.985882 12.117942 -8.380425
v -2.988264 12.117942 -7.867169
v -4.992371 12.117942 -6.767802
v 5.007523 9.150455 -6.721795
v 3.011672 9.150455 -7.839564
v 1.014097 9.150455 -8.371223
v -0.985882 9.150455 -8.380425
v -2.988264 9.150455 -7.867169
v -4.992371 9.150455 -6.767802
v 5.007523 6.182967 -6.721795
v 3.011672 6.182967 -7.839564
v 1.014097 6.182967 -8.371223
v -0.985882 6.182967 -8.380425
v -2.988264 6.182967 -7.867169
v -4.992371 6.182967 -6.767802
v 5.007523 3.215480 -6.721795
v 3.011672 3.215480 -7.839564
v 1.014097 3.215480 -8.371223
v -0.985882 3.215480 -8.380425
v -2.988264 3.215480 -7.867169
v -4.992371 3.215480 -6.767802
v 5.007523 0.247993 -6.721795
v 3.011672 0.247993 -7.839564
v 1.014097 0.247993 -8.371223
v -0.985882 0.247993 -8.380425
v -2.988264 0.247993 -7.867169
v -4.992371 0.247993 -6.767802
vt 0.000000 0.000000
vt 0.200000 0.000000
vt 0.400000 0.000000
vt 0.600000 0.000000
vt 0.800000 0.000000
vt 1.000000 0.000000
vt 0.000000 0.200000
vt 0.200000 0.200000
vt 0.400000 0.200000
vt 0.600000 0.200000
vt 0.800000 0.200000
vt 1.000000 0.200000
vt 0.000000 0.400000
vt 0.200000 0.400000
vt 0.400000 0.400000
vt 0.600000 0.400000
vt 0.800000 0.400000
vt 1.000000 0.400000
vt 0.000000 0.600000
vt 0.200000 0.600000
vt 0.400000 0.600000
vt 0.600000 0.600000
vt 0.800000 0.600000
vt 1.000000 0.600000
vt 0.000000 0.800000
vt 0.200000 0.800000
vt 0.400000 0.800000
vt 0.600000 0.800000
vt 0.800000 0.800000
vt 1.000000 0.800000
vt 0.000000 1.000000
vt 0.200000 1.000000
vt 0.400000 1.000000
vt 0.600000 1.000000
vt 0.800000 1.000000
vt 1.000000 1.000000
vn -0.488634 0.000000 0.872489
vn -0.488634 0.000000 0.872489
vn -0.381754 0.000000 0.924264
vn -0.381754 0.000000 0.924264
vn -0.134076 0.000000 0.990971
vn -0.134076 0.000000 0.990971
vn 0.124952 0.000000 0.992163
vn 0.124952 0.000000 0.992163
vn 0.373391 0.000000 0.927674
vn 0.373391 0.000000 0.927674
vn 0.480947 0.000000 0.876750
vn 0.480947 0.000000 0.876750
vn -0.488634 0.000000 0.872489
vn -0.381754 0.000000 0.924264
vn -0.134076 0.000000 0.990971
vn 0.124952 0.000000 0.992163
vn 0.373391 0.000000 0.927674
vn 0.480947 0.000000 0.876750
vn -0.488634 0.000000 0.872489
vn -0.381754 0.000000 0.924264
vn -0.134076 0.000000 0.990971
vn 0.124952 0.000000 0.992163
vn 0.373391 0.000000 0.927674
vn 0.480947 0.000000 0.876750
vn -0.488634 0.000000 0.872489
vn -0.381754 0.000000 0.924264
vn -0.134076 0.000000 0.990971
vn 0.124952 0.000000 0.992163
vn 0.373391 0.000000 0.927674
vn 0.480947 0.000000 0.876750
vn -0.381754 0.000000 0.924264
vn -0.488634 0.000000 0.872489
vn -0.134076 0.000000 0.990971
vn 0.124952 0.000000 0.992163
vn 0.373391 0.000000 0.927674
vn 0.480947 0.000000 0.876750
s 1
g pPlane1
usemtl initialShadingGroup
f 7/7/1 1/1/2 2/2/3 8/8/4
f 8/8/4 2/2/3 3/3/5 9/9/6
f 9/9/6 3/3/5 4/4/7 10/10/8
f 10/10/8 4/4/7 5/5/9 11/11/10
f 11/11/10 5/5/9 6/6/11 12/12/12
f 13/13/13 7/7/1 8/8/4 14/14/14
f 14/14/14 8/8/4 9/9/6 15/15/15
f 15/15/15 9/9/6 10/10/8 16/16/16
f 16/16/16 10/10/8 11/11/10 17/17/17
f 17/17/17 11/11/10 12/12/12 18/18/18
f 19/19/19 13/13/13 14/14/14 20/20/20
f 20/20/20 14/14/14 15/15/15 21/21/21
f 21/21/21 15/15/15 16/16/16 22/22/22
f 22/22/22 16/16/16 17/17/17 23/23/23
f 23/23/23 17/17/17 18/18/18 24/24/24
f 25/25/25 19/19/19 20/20/20 26/26/26
f 26/26/26 20/20/20 21/21/21 27/27/27
f 27/27/27 21/21/21 22/22/22 28/28/28
f 28/28/28 22/22/22 23/23/23 29/29/29
f 29/29/29 23/23/23 24/24/24 30/30/30
f 32/32/31 31/31/32 25/25/25 26/26/26
f 33/33/33 32/32/31 26/26/26 27/27/27
f 34/34/34 33/33/33 27/27/27 28/28/28
f 35/35/35 34/34/34 28/28/28 29/29/29
f 36/36/36 35/35/35 29/29/29 30/30/30
